C:\Users\Johan\workspace_neon\JohanRadius\src\test\java\se\johan\radius\packages\TestMethods.java
C:\Users\Johan\workspace_neon\JohanRadius\src\main\java\se\johan\radius\makersAndValidators\PackageValidator.java
C:\Users\Johan\workspace_neon\JohanRadius\src\main\java\se\johan\radius\meta\Code.java
C:\Users\Johan\workspace_neon\JohanRadius\src\main\java\se\johan\radius\exceptions\BytesToRadiusPackageException.java
C:\Users\Johan\workspace_neon\JohanRadius\src\main\java\se\johan\radius\util\RadiusArrays.java
C:\Users\Johan\workspace_neon\JohanRadius\src\main\java\se\johan\radius\meta\Constants.java
C:\Users\Johan\workspace_neon\JohanRadius\src\main\java\se\johan\radius\packages\RadiusPackage.java
C:\Users\Johan\workspace_neon\JohanRadius\src\main\java\se\johan\radius\server\Main.java
C:\Users\Johan\workspace_neon\JohanRadius\src\main\java\se\johan\radius\db\DataBaseHandler.java
C:\Users\Johan\workspace_neon\JohanRadius\src\main\java\se\johan\radius\db\UserPwdMatch.java
C:\Users\Johan\workspace_neon\JohanRadius\src\main\java\se\johan\radius\makersAndValidators\DigestMachine.java
C:\Users\Johan\workspace_neon\JohanRadius\src\main\java\se\johan\radius\meta\Type.java
C:\Users\Johan\workspace_neon\JohanRadius\src\main\java\se\johan\radius\server\Server.java
C:\Users\Johan\workspace_neon\JohanRadius\src\test\java\se\johan\radius\packages\Client.java
C:\Users\Johan\workspace_neon\JohanRadius\src\main\java\se\johan\radius\exceptions\BytesToAttributeException.java
C:\Users\Johan\workspace_neon\JohanRadius\src\main\java\se\johan\radius\makersAndValidators\PackageMaker.java
C:\Users\Johan\workspace_neon\JohanRadius\src\main\java\se\johan\radius\packages\Attribute.java
C:\Users\Johan\workspace_neon\JohanRadius\src\main\java\se\johan\radius\makersAndValidators\AttributeMaker.java
C:\Users\Johan\workspace_neon\JohanRadius\src\test\java\se\johan\radius\packages\ReceivingAndSendingPackagesTest.java
